<?xml version="1.0" encoding="UTF-8"?>
<session version="1.0">
<refactoring accessors="true" comment="Delete element from project &apos;util&apos;&#x0A;- Original project: &apos;util&apos;&#x0A;- Original element: &apos;util/src/util&apos;" description="Delete element" element1="/src&lt;util" elements="1" flags="589830" id="org.eclipse.jdt.ui.delete" resources="0" stamp="1666009204629" subPackages="false" version="1.0"/>
</session>